STARS2025/lab09/waves/enc20to5.vcd
$date
	Thu Jun 19 13:38:29 2025
$end
$version
	Icarus Verilog
$end
$timescale
	10ps
$end
$scope module enc20to5_tb $end
$var wire 1 ! storbe $end
$var wire 5 " out [4:0] $end
$var reg 20 # in [19:0] $end
$var reg 1 $ strobe $end
$scope module encoder $end
$var wire 20 % in [19:0] $end
$var wire 1 ! strobe $end
$var reg 5 & out [4:0] $end
$scope begin $ivl_for_loop1 $end
$var integer 32 ' i [31:0] $end
$upscope $end
$upscope $end
$scope begin $ivl_for_loop0 $end
$var integer 32 ( i [31:0] $end
$upscope $end
$upscope $end
$enddefinitions $end
$comment Show the parameter values. $end
$dumpall
$end
#0
$dumpvars
b0 (
b10100 '
b0 &
b1 %
x$
b1 #
b0 "
1!
$end
#100000000
b1 "
b1 &
b10100 '
b11 #
b11 %
b1 (
#200000000
b10100 '
b10 "
b10 &
b111 #
b111 %
b10 (
#300000000
b10100 '
b11 "
b11 &
b1111 #
b1111 %
b11 (
#400000000
b10100 '
b100 "
b100 &
b11111 #
b11111 %
b100 (
#500000000
b10100 '
b101 "
b101 &
b111111 #
b111111 %
b101 (
#600000000
b10100 '
b110 "
b110 &
b1111111 #
b1111111 %
b110 (
#700000000
b10100 '
b111 "
b111 &
b11111111 #
b11111111 %
b111 (
#800000000
b10100 '
b1000 "
b1000 &
b111111111 #
b111111111 %
b1000 (
#900000000
b10100 '
b1001 "
b1001 &
b1111111111 #
b1111111111 %
b1001 (
#1000000000
b10100 '
b1010 "
b1010 &
b11111111111 #
b11111111111 %
b1010 (
#1100000000
b10100 '
b1011 "
b1011 &
b111111111111 #
b111111111111 %
b1011 (
#1200000000
b10100 '
b1100 "
b1100 &
b1111111111111 #
b1111111111111 %
b1100 (
#1300000000
b10100 '
b1101 "
b1101 &
b11111111111111 #
b11111111111111 %
b1101 (
#1400000000
b10100 '
b1110 "
b1110 &
b111111111111111 #
b111111111111111 %
b1110 (
#1500000000
b10100 '
b1111 "
b1111 &
b1111111111111111 #
b1111111111111111 %
b1111 (
#1600000000
b10100 '
b10000 "
b10000 &
b11111111111111111 #
b11111111111111111 %
b10000 (
#1700000000
b10100 '
b10001 "
b10001 &
b111111111111111111 #
b111111111111111111 %
b10001 (
#1800000000
b10100 '
b10010 "
b10010 &
b1111111111111111111 #
b1111111111111111111 %
b10010 (
#1900000000
b10100 '
b10011 "
b10011 &
b11111111111111111111 #
b11111111111111111111 %
b10011 (
#2000000000
b10100 (
#2100000000
b10101 (
